<?xml version="1.0" encoding="utf-8"?>
<!-- Generator: Adobe Illustrator 22.0.1, SVG Export Plug-In . SVG Version: 6.00 Build 0)  -->
<svg version="1.1" id="Layer_1" xmlns="http://www.w3.org/2000/svg" xmlns:xlink="http://www.w3.org/1999/xlink" x="0px" y="0px"
	 width="71.9px" height="71.9px" viewBox="0 0 71.9 71.9" style="enable-background:new 0 0 71.9 71.9;" xml:space="preserve">
<style type="text/css">
	.st0{fill:#E20D18;}
	.st1{fill:none;stroke:#FFFFFF;stroke-width:1.728;stroke-linecap:round;stroke-linejoin:round;}
	.st2{opacity:0.35;}
	.st3{filter:url(#Adobe_OpacityMaskFilter);}
	.st4{fill:url(#SVGID_2_);}
	.st5{mask:url(#SVGID_1_);}
	.st6{fill:#FFFFFF;}
</style>
<g>
	<g>
		<path class="st0" d="M35.5,71C55.1,71,71,55.1,71,35.5S55.1,0,35.5,0S0,15.9,0,35.5S15.9,71,35.5,71"/>
		<path class="st1" d="M23.9,41.8h-3.1c-0.5,0-0.8,0.4-0.8,0.8c0,0.8,0.7,1.5,1.5,1.5h26.4 M47.9,44.1h12.5c0.8,0,1.5-0.7,1.5-1.5
			v-0.8 M23.9,41.8h-1.7c-1.2,0-2.2-1-2.2-2.2V25.5c0-1.2,1-2.2,2.2-2.2h15.4h8c1.2,0,2.2,1,2.2,2.2v13c0,1.2-1,1.5-2.2,1.5h-11
			 M52.5,27.9h1.9c1.7,0,3.2,1,4,2.5l3.2,6.3c0.2,0.3,0.2,0.6,0.2,1v4.1 M61.7,37.2h-7c-1.2,0-2.2-1-2.2-2.2v-3.1h6.2 M52.5,27.9
			h-4.6"/>
		<circle class="st1" cx="29.2" cy="44.2" r="3.3"/>
		<path class="st0" d="M41.1,40.4c0,6.6-5.3,11.9-11.9,11.9S17.3,47,17.3,40.4s5.3-11.9,11.9-11.9S41.1,33.8,41.1,40.4"/>
		<circle class="st1" cx="29.2" cy="40.4" r="9.2"/>
	</g>
	<line class="st1" x1="28.6" y1="41.1" x2="31.5" y2="38.1"/>
	<line class="st1" x1="30" y1="41.1" x2="25.5" y2="36.6"/>
	<line class="st1" x1="28.1" y1="28.8" x2="30.3" y2="28.8"/>
	<line class="st1" x1="36" y1="33.6" x2="37.4" y2="32.3"/>
	<line class="st1" x1="29.2" y1="30.8" x2="29.2" y2="28.8"/>
	<line class="st1" x1="11.7" y1="28.8" x2="16" y2="28.8"/>
	<line class="st1" x1="11.7" y1="36.9" x2="16" y2="36.9"/>
	<line class="st1" x1="8.4" y1="32.8" x2="16" y2="32.8"/>
	<g>
		<g class="st2">
			<g>
				<defs>
					<filter id="Adobe_OpacityMaskFilter" filterUnits="userSpaceOnUse" x="6.9" y="1.9" width="57.1" height="57.1">
						<feFlood  style="flood-color:white;flood-opacity:1" result="back"/>
						<feBlend  in="SourceGraphic" in2="back" mode="normal"/>
					</filter>
				</defs>
				<mask maskUnits="userSpaceOnUse" x="6.9" y="1.9" width="57.1" height="57.1" id="SVGID_1_">
					<g class="st3">
						
							<linearGradient id="SVGID_2_" gradientUnits="userSpaceOnUse" x1="-104.6873" y1="178.5802" x2="-103.6873" y2="178.5802" gradientTransform="matrix(-0.4435 63.5259 -63.5259 -0.4435 11330.7646 6724.9995)">
							<stop  offset="0" style="stop-color:#FFFFFF"/>
							<stop  offset="1" style="stop-color:#000000"/>
						</linearGradient>
						<polygon class="st4" points="-0.1,-7.5 -0.6,68 65,68.5 65.5,-7.1 						"/>
					</g>
				</mask>
				<g class="st5">
					<g>
						<path class="st6" d="M64,30.5C64,46.2,51.2,59,35.5,59C19.7,59,6.9,46.2,6.9,30.5S19.7,1.9,35.5,1.9C51.2,1.9,64,14.7,64,30.5
							"/>
					</g>
				</g>
			</g>
		</g>
	</g>
</g>
</svg>
