<?xml version="1.0" encoding="utf-8"?>
<!-- Generator: Adobe Illustrator 22.0.1, SVG Export Plug-In . SVG Version: 6.00 Build 0)  -->
<svg version="1.1" id="Layer_1" xmlns="http://www.w3.org/2000/svg" xmlns:xlink="http://www.w3.org/1999/xlink" x="0px" y="0px"
	 width="53.1px" height="59.2px" viewBox="0 0 53.1 59.2" style="enable-background:new 0 0 53.1 59.2;" xml:space="preserve">
<style type="text/css">
	.st0{fill:#FFFFFF;}
	.st1{fill:none;stroke:#FFFFFF;stroke-width:3;}
	.st2{fill:#E20D18;}
	.st3{opacity:0.35;clip-path:url(#SVGID_2_);}
	.st4{filter:url(#Adobe_OpacityMaskFilter);}
	.st5{clip-path:url(#SVGID_4_);fill:url(#SVGID_6_);}
	.st6{clip-path:url(#SVGID_4_);mask:url(#SVGID_5_);}
	.st7{clip-path:url(#SVGID_8_);fill:#FFFFFF;}
	.st8{fill:#F07E07;}
	.st9{opacity:0.35;clip-path:url(#SVGID_10_);}
	.st10{filter:url(#Adobe_OpacityMaskFilter_1_);}
	.st11{clip-path:url(#SVGID_12_);fill:url(#SVGID_14_);}
	.st12{clip-path:url(#SVGID_12_);mask:url(#SVGID_13_);}
	.st13{clip-path:url(#SVGID_16_);fill:#FFFFFF;}
	.st14{fill:none;stroke:#4B4B4A;stroke-width:2.4;stroke-linecap:round;}
</style>
<g>
	<g>
		<path class="st0" d="M26.6,53.6c13.3,0,24-10.7,24-24s-10.7-24-24-24s-24,10.7-24,24S13.4,53.6,26.6,53.6"/>
		<circle class="st1" cx="26.6" cy="29.6" r="24"/>
		<path class="st2" d="M49.3,29.6c0-12.5-10.2-22.7-22.7-22.7S3.9,17.1,3.9,29.6h4.8c0-9.9,8-17.9,17.9-17.9s17.9,8,17.9,17.9H49.3z
			"/>
	</g>
	<g>
		<defs>
			<path id="SVGID_1_" d="M3.9,29.6h4.8c0-9.9,8-17.9,17.9-17.9c9.9,0,17.9,8,17.9,17.9h4.8c0-12.5-10.2-22.7-22.7-22.7
				C14.1,6.9,3.9,17.1,3.9,29.6"/>
		</defs>
		<clipPath id="SVGID_2_">
			<use xlink:href="#SVGID_1_"  style="overflow:visible;"/>
		</clipPath>
		<g class="st3">
			<g>
				<defs>
					<polygon id="SVGID_3_" points="0,59.2 49.2,59.2 48.2,0 -1,0 					"/>
				</defs>
				<clipPath id="SVGID_4_">
					<use xlink:href="#SVGID_3_"  style="overflow:visible;"/>
				</clipPath>
				<defs>
					<filter id="Adobe_OpacityMaskFilter" filterUnits="userSpaceOnUse" x="-1" y="0" width="50.2" height="59.2">
						<feFlood  style="flood-color:white;flood-opacity:1" result="back"/>
						<feBlend  in="SourceGraphic" in2="back" mode="normal"/>
					</filter>
				</defs>
				<mask maskUnits="userSpaceOnUse" x="-1" y="0" width="50.2" height="59.2" id="SVGID_5_">
					<g class="st4">
						
							<linearGradient id="SVGID_6_" gradientUnits="userSpaceOnUse" x1="-130.9677" y1="193.4055" x2="-129.9677" y2="193.4055" gradientTransform="matrix(-0.3205 45.9056 -45.9056 -0.3205 8861.2207 6078.4463)">
							<stop  offset="0" style="stop-color:#FFFFFF"/>
							<stop  offset="1" style="stop-color:#000000"/>
						</linearGradient>
						<polygon class="st5" points="0,-0.3 -0.4,59.2 49.2,59.6 49.7,0 						"/>
					</g>
				</mask>
				<g class="st6">
					<g>
						<defs>
							<polygon id="SVGID_7_" points="0,59.2 49.2,59.2 48.2,0 -1,0 							"/>
						</defs>
						<clipPath id="SVGID_8_">
							<use xlink:href="#SVGID_7_"  style="overflow:visible;"/>
						</clipPath>
						<path class="st7" d="M47.2,29.6c0,11.4-9.2,20.6-20.6,20.6S6,41,6,29.6S15.2,9,26.6,9S47.2,18.2,47.2,29.6"/>
					</g>
				</g>
			</g>
		</g>
	</g>
	<g>
		<path class="st8" d="M3.9,29.6c0,12.5,10.2,22.7,22.7,22.7s22.7-10.2,22.7-22.7h-4.8c0,9.9-8,17.9-17.9,17.9s-17.9-8-17.9-17.9
			H3.9z"/>
	</g>
	<g>
		<defs>
			<path id="SVGID_9_" d="M44.5,29.6c0,9.9-8,17.9-17.9,17.9c-9.9,0-17.9-8-17.9-17.9H3.9c0,12.5,10.2,22.7,22.7,22.7
				c12.5,0,22.7-10.2,22.7-22.7H44.5z"/>
		</defs>
		<clipPath id="SVGID_10_">
			<use xlink:href="#SVGID_9_"  style="overflow:visible;"/>
		</clipPath>
		<g class="st9">
			<g>
				<defs>
					<polygon id="SVGID_11_" points="0,59.2 49.2,59.2 48.2,0 -1,0 					"/>
				</defs>
				<clipPath id="SVGID_12_">
					<use xlink:href="#SVGID_11_"  style="overflow:visible;"/>
				</clipPath>
				<defs>
					<filter id="Adobe_OpacityMaskFilter_1_" filterUnits="userSpaceOnUse" x="-1" y="0" width="50.2" height="59.2">
						<feFlood  style="flood-color:white;flood-opacity:1" result="back"/>
						<feBlend  in="SourceGraphic" in2="back" mode="normal"/>
					</filter>
				</defs>
				<mask maskUnits="userSpaceOnUse" x="-1" y="0" width="50.2" height="59.2" id="SVGID_13_">
					<g class="st10">
						
							<linearGradient id="SVGID_14_" gradientUnits="userSpaceOnUse" x1="-130.9677" y1="193.4055" x2="-129.9677" y2="193.4055" gradientTransform="matrix(-0.3205 45.9056 -45.9056 -0.3205 8861.2207 6078.4463)">
							<stop  offset="0" style="stop-color:#FFFFFF"/>
							<stop  offset="1" style="stop-color:#000000"/>
						</linearGradient>
						<polygon class="st11" points="0,-0.3 -0.4,59.2 49.2,59.6 49.7,0 						"/>
					</g>
				</mask>
				<g class="st12">
					<g>
						<defs>
							<polygon id="SVGID_15_" points="0,59.2 49.2,59.2 48.2,0 -1,0 							"/>
						</defs>
						<clipPath id="SVGID_16_">
							<use xlink:href="#SVGID_15_"  style="overflow:visible;"/>
						</clipPath>
						<path class="st13" d="M47.2,29.6c0,11.4-9.2,20.6-20.6,20.6S6,41,6,29.6S15.2,9,26.6,9S47.2,18.2,47.2,29.6"/>
					</g>
				</g>
			</g>
		</g>
	</g>
	<polyline class="st14" points="22.6,22.3 30.5,29.7 22.5,37.2 	"/>
</g>
</svg>
