<?xml version="1.0" encoding="utf-8"?>
<!-- Generator: Adobe Illustrator 22.0.1, SVG Export Plug-In . SVG Version: 6.00 Build 0)  -->
<svg version="1.1" id="Layer_1" xmlns="http://www.w3.org/2000/svg" xmlns:xlink="http://www.w3.org/1999/xlink" x="0px" y="0px"
	 width="1140.1px" height="17px" viewBox="0 0 1140.1 17" style="enable-background:new 0 0 1140.1 17;" xml:space="preserve">
<style type="text/css">
	.st0{clip-path:url(#SVGID_2_);fill:none;stroke:#727070;stroke-linecap:round;stroke-linejoin:round;stroke-dasharray:0,3.036;}
	.st1{clip-path:url(#SVGID_2_);fill:none;stroke:#727070;stroke-linecap:round;stroke-linejoin:round;stroke-dasharray:0,2.835;}
	.st2{fill:none;stroke:#727070;stroke-linecap:round;stroke-linejoin:round;stroke-dasharray:0,2.835;}
	.st3{clip-path:url(#SVGID_4_);fill:none;stroke:#727070;stroke-linecap:round;stroke-linejoin:round;stroke-dasharray:0,3.006;}
	.st4{clip-path:url(#SVGID_4_);fill:none;stroke:#727070;stroke-linecap:round;stroke-linejoin:round;}
	.st5{clip-path:url(#SVGID_4_);fill:none;stroke:#727070;stroke-linecap:round;stroke-linejoin:round;stroke-dasharray:0,3.003;}
	.st6{clip-path:url(#SVGID_4_);fill:none;stroke:#727070;stroke-linecap:round;stroke-linejoin:round;stroke-dasharray:0,3.012;}
</style>
<g>
	<defs>
		<rect id="SVGID_1_" width="1140.1" height="17"/>
	</defs>
	<clipPath id="SVGID_2_">
		<use xlink:href="#SVGID_1_"  style="overflow:visible;"/>
	</clipPath>
	<line class="st0" x1="499.6" y1="0.5" x2="552.7" y2="0.5"/>
	<line class="st1" x1="556.3" y1="2.5" x2="569.3" y2="15.5"/>
</g>
<line class="st2" x1="572.3" y1="14.5" x2="585.3" y2="1.5"/>
<g>
	<defs>
		<rect id="SVGID_3_" width="1140.1" height="17"/>
	</defs>
	<clipPath id="SVGID_4_">
		<use xlink:href="#SVGID_3_"  style="overflow:visible;"/>
	</clipPath>
	<line class="st3" x1="589.3" y1="0.5" x2="789.2" y2="0.5"/>
	<path class="st4" d="M790.7,0.5L790.7,0.5 M586.3,0.5L586.3,0.5 M570.3,16.5L570.3,16.5 M554.2,0.5L554.2,0.5 M496.6,0.5L496.6,0.5
		"/>
	<line class="st5" x1="3.5" y1="0.5" x2="491.5" y2="0.5"/>
	<path class="st4" d="M493,0.5L493,0.5 M0.5,0.5L0.5,0.5"/>
	<line class="st6" x1="796.1" y1="0.5" x2="1138.1" y2="0.5"/>
	<path class="st4" d="M1139.6,0.5L1139.6,0.5 M793.1,0.5L793.1,0.5"/>
</g>
</svg>
