<?xml version="1.0" encoding="utf-8"?>
<!-- Generator: Adobe Illustrator 22.0.1, SVG Export Plug-In . SVG Version: 6.00 Build 0)  -->
<svg version="1.1" id="Layer_1" xmlns="http://www.w3.org/2000/svg" xmlns:xlink="http://www.w3.org/1999/xlink" x="0px" y="0px"
	 width="1px" height="21.4px" viewBox="0 0 1 21.4" style="enable-background:new 0 0 1 21.4;" xml:space="preserve">
<style type="text/css">
	.st0{clip-path:url(#SVGID_2_);fill:url(#SVGID_3_);}
</style>
<g>
	<defs>
		<rect id="SVGID_1_" width="1" height="21.4"/>
	</defs>
	<clipPath id="SVGID_2_">
		<use xlink:href="#SVGID_1_"  style="overflow:visible;"/>
	</clipPath>
	
		<linearGradient id="SVGID_3_" gradientUnits="userSpaceOnUse" x1="-146.6971" y1="170.1283" x2="-145.6971" y2="170.1283" gradientTransform="matrix(1.308000e-15 -21.3613 -21.3613 -1.308000e-15 3634.6614 -3112.2793)">
		<stop  offset="0" style="stop-color:#2A2522"/>
		<stop  offset="0.4974" style="stop-color:#FFFFFF"/>
		<stop  offset="1" style="stop-color:#2A2522"/>
	</linearGradient>
	<polyline class="st0" points="0.5,0 0.5,21.4 0.5,21.4 0.5,0 	"/>
</g>
</svg>
